{
  "page": 1,
  "total_results": 43,
  "total_pages": 3,
  "results": [
    {
      "vote_count": 14414,
      "id": 24428,
      "video": false,
      "vote_average": 7.5,
      "title": "The Avengers",
      "popularity": 176.818104,
      "poster_path": "/cezWGskPY5x7GaglTTRN4Fugfb8.jpg",
      "original_language": "en",
      "original_title": "The Avengers",
      "genre_ids": [878, 28, 12],
      "backdrop_path": "/hbn46fQaRmlpBuUrEiFqv0GDL6Y.jpg",
      "adult": true,
      "overview":
        "When an unexpected enemy emerges and threatens global safety and security, Nick Fury, director of the international peacekeeping agency known as S.H.I.E.L.D., finds himself in need of a team to pull the world back from the brink of disaster. Spanning the globe, a daring recruitment effort begins!",
      "release_date": "2012-04-25"
    },
    {
      "vote_count": 1371,
      "id": 299536,
      "video": false,
      "vote_average": 8.8,
      "title": "Avengers: Infinity War",
      "popularity": 434.840012,
      "poster_path": "/7WsyChQLEftFiDOVTGkv3hFpyyt.jpg",
      "original_language": "en",
      "original_title": "Avengers: Infinity War",
      "genre_ids": [12, 878, 14, 28],
      "backdrop_path": "/bOGkgRGdhrBYJSLpXaxhXVstddV.jpg",
      "adult": false,
      "overview":
        "As the Avengers and their allies have continued to protect the world from threats too large for any one hero to handle, a new danger has emerged from the cosmic shadows: Thanos. A despot of intergalactic infamy, his goal is to collect all six Infinity Stones, artifacts of unimaginable power, and use them to inflict his twisted will on all of reality. Everything the Avengers have fought for has led up to this moment - the fate of Earth and existence itself has never been more uncertain.",
      "release_date": "2018-04-25"
    },
    {
      "vote_count": 8985,
      "id": 99861,
      "video": false,
      "vote_average": 7.3,
      "title": "Avengers: Age of Ultron",
      "popularity": 130.799134,
      "poster_path": "/t90Y3G8UGQp0f0DrP60wRu9gfrH.jpg",
      "original_language": "en",
      "original_title": "Avengers: Age of Ultron",
      "genre_ids": [28, 12, 878],
      "backdrop_path": "/rFtsE7Lhlc2jRWF7SRAU0fvrveQ.jpg",
      "adult": false,
      "overview":
        "When Tony Stark tries to jumpstart a dormant peacekeeping program, things go awry and Earth’s Mightiest Heroes are put to the ultimate test as the fate of the planet hangs in the balance. As the villainous Ultron emerges, it is up to The Avengers to stop him from enacting his terrible plans, and soon uneasy alliances and unexpected action pave the way for an epic and unique global adventure.",
      "release_date": "2015-04-22"
    },
    {
      "vote_count": 9,
      "id": 299534,
      "video": false,
      "vote_average": 0,
      "title": "Avengers: Infinity War Part 2",
      "popularity": 54.141978,
      "poster_path": "/guViKKIY0D5UlfQcHnusB8zrJqc.jpg",
      "original_language": "en",
      "original_title": "Avengers: Infinity War Part 2",
      "genre_ids": [28, 12, 878],
      "backdrop_path": "/nTHHdGBwGIxFcA6ygwz3s9oZ5pj.jpg",
      "adult": false,
      "overview": "The culmination of the Marvel Cinematic Universe.",
      "release_date": "2019-04-24"
    },
    {
      "vote_count": 249,
      "id": 9320,
      "video": false,
      "vote_average": 4.3,
      "title": "The Avengers",
      "popularity": 10.850602,
      "poster_path": "/zxjJ2IxhilZLzl8eXjj7S0apZ7k.jpg",
      "original_language": "en",
      "original_title": "The Avengers",
      "genre_ids": [53],
      "backdrop_path": "/8YW4rwWQgC2JRlBcpStMNUko13k.jpg",
      "adult": false,
      "overview":
        "British Ministry agent John Steed, under direction from \"Mother\", investigates a diabolical plot by arch-villain Sir August de Wynter to rule the world with his weather control machine. Steed investigates the beautiful Doctor Mrs. Emma Peel, the only suspect, but simultaneously falls for her and joins forces with her to combat Sir August.",
      "release_date": "1998-08-13"
    },
    {
      "vote_count": 107,
      "id": 14609,
      "video": false,
      "vote_average": 6.4,
      "title": "Ultimate Avengers",
      "popularity": 7.873818,
      "poster_path": "/pmNYggLktcWHzQeCru5ywL4OiRH.jpg",
      "original_language": "en",
      "original_title": "Ultimate Avengers",
      "genre_ids": [28, 16, 12, 878],
      "backdrop_path": "/cXHiXZWTPMClrJazhi7ZaB7Y3iK.jpg",
      "adult": false,
      "overview":
        "When a nuclear missile was fired at Washington in 1945, Captain America managed to detonate it in the upper atmosphere. But then he fell miles into the icy depths of the North Atlantic, where he remained lost for over sixty years. But now, with the world facing the very same evil, Captain America must rise again as our last hope for survival.",
      "release_date": "2006-02-21"
    },
    {
      "vote_count": 4,
      "id": 347158,
      "video": false,
      "vote_average": 6.3,
      "title": "Bikini Avengers",
      "popularity": 5.321016,
      "poster_path": "/xmWUoqIIdqxmBuCS3Q1wrUgvXjl.jpg",
      "original_language": "en",
      "original_title": "Bikini Avengers",
      "genre_ids": [35],
      "backdrop_path": null,
      "adult": false,
      "overview":
        "When the Jade Empress steals the world's largest diamonds, super heroes Bikini Avenger and Thong Girl must stop her before she uses the gems to build a dangerous sci-fi weapon.",
      "release_date": "2015-02-24"
    },
    {
      "vote_count": 46,
      "id": 323660,
      "video": false,
      "vote_average": 4.1,
      "title": "Avengers Grimm",
      "popularity": 5.095621,
      "poster_path": "/i4f2Gko4ogs6C49QVucCcjNAYos.jpg",
      "original_language": "en",
      "original_title": "Avengers Grimm",
      "genre_ids": [28, 14],
      "backdrop_path": "/2tklhhTTGKXZLKdP6VasBbas8Nn.jpg",
      "adult": false,
      "overview":
        "When Rumpelstiltskin destroys the Magic Mirror and escapes to the modern world, the four princesses of \"Once Upon a Time\"-Cinderella, Sleeping Beauty, Snow White, and Rapunzel-are sucked through the portal too. Well-trained and endowed with magical powers, the four women must fight Rumpelstiltskin and his army of thralls before he enslaves everyone on Earth.",
      "release_date": "2015-03-17"
    },
    {
      "vote_count": 87,
      "id": 14611,
      "video": false,
      "vote_average": 6.3,
      "title": "Ultimate Avengers 2",
      "popularity": 8.336349,
      "poster_path": "/u7vvexSU81Qk20yU7Vog23Ogob.jpg",
      "original_language": "en",
      "original_title": "Ultimate Avengers 2",
      "genre_ids": [12, 16, 28, 878],
      "backdrop_path": "/85NqI4WuCim6dZexmTPUAi13Af0.jpg",
      "adult": false,
      "overview":
        "Mysterious Wakanda lies in the darkest heart of Africa, unknown to most of the world. An isolated land hidden behind closed borders, fiercely protected by its young king - the Black Panther. But when brutal alien invaders attack, the threat leaves the Black Panther with no option but to go against the sacred decrees of his people and ask for help from outsiders.",
      "release_date": "2006-08-08"
    },
    {
      "vote_count": 4,
      "id": 63441,
      "video": false,
      "vote_average": 6.1,
      "title": "Masked Avengers",
      "popularity": 2.399951,
      "poster_path": "/ecznT3q4vs1SLKo2arCpKLvQmv8.jpg",
      "original_language": "en",
      "original_title": "Cha shou",
      "genre_ids": [28],
      "backdrop_path": "/nrwT1fQTGgy62xSJ6v501EAQukS.jpg",
      "adult": false,
      "overview":
        "Philip Kwok plays a repentant killer who vows to destroy the masked gang of which he was a member. A young fighter and his martial arts brothers come to the town to catch the killers, but one of them is not to be trusted!",
      "release_date": "1981-05-15"
    },
    {
      "vote_count": 54,
      "id": 14613,
      "video": false,
      "vote_average": 6.3,
      "title": "Next Avengers: Heroes of Tomorrow",
      "popularity": 6.592358,
      "poster_path": "/c4olZWesmYYv5DzlqVLZf7RP7aE.jpg",
      "original_language": "en",
      "original_title": "Next Avengers: Heroes of Tomorrow",
      "genre_ids": [16, 10751],
      "backdrop_path": "/8N91uYwrr1uepEKbmym1tgfXlzS.jpg",
      "adult": false,
      "overview":
        "The children of the Avengers hone their powers and go head to head with the very enemy responsible for their parents' demise.",
      "release_date": "2008-09-02"
    },
    {
      "vote_count": 0,
      "id": 223291,
      "video": false,
      "vote_average": 0,
      "title": "Alien Avengers II",
      "popularity": 2.611156,
      "poster_path": "/4L3ajGP3ZsnM8xIrXjwEZOLYBjb.jpg",
      "original_language": "en",
      "original_title": "Alien Avengers II",
      "genre_ids": [10770, 35, 878],
      "backdrop_path": null,
      "adult": false,
      "overview":
        "Weird things are happening in the town of Justice, Arizona: three sheriffs have disappeared, and someone is killing the rancher's livestock in a bizarre, ritualistic fashion. Locals believe the incidents were caused by aliens...\r But a visiting couple, Charlie and Rhonda, knows better – because they're aliens themselves. When no one else will, Charlie and Rhonda volunteer to be the new sheriffs to get to bottom of the crimes. Hiding behind the power of the badge, the two make their own rules, punishing wrong-doers with their own form of \"eye-for-an-eye\" alien vengeance.\r Follow this twisted, outer space \"Bonnie and Clyde\" as they attempt to bring Justice the justice it deserves.",
      "release_date": "1997-10-25"
    },
    {
      "vote_count": 2,
      "id": 58906,
      "video": false,
      "vote_average": 5.5,
      "title": "Alien Avengers",
      "popularity": 1.580495,
      "poster_path": "/Akd3Aqrr2q8PLKOCPOkOnB3AoJk.jpg",
      "original_language": "en",
      "original_title": "Alien Avengers",
      "genre_ids": [35, 878],
      "backdrop_path": "/boX7D2wHtf01C7AzzPuVZAzc74x.jpg",
      "adult": false,
      "overview":
        "Charlie and Rhonda are a sweet and comfortable married couple on vacation with their lovely daughter Daphne. They find a rundown boarding house and its haggard owner, Joseph, an ex-con whose mother has just died and left him the house. He doesn't know why this cheerful couple would want to vacation in the worst part of Los Angeles, but he doesn't know they're vacationing from outer space, and their idea of fun is murdering lowlife out on the streets",
      "release_date": "1996-08-03"
    },
    {
      "vote_count": 13,
      "id": 368304,
      "video": false,
      "vote_average": 6,
      "title": "LEGO Marvel Super Heroes: Avengers Reassembled!",
      "popularity": 3.772764,
      "poster_path": "/pPdB6N9iJjn9GwrNkhMS1FKgx22.jpg",
      "original_language": "en",
      "original_title": "LEGO Marvel Super Heroes: Avengers Reassembled!",
      "genre_ids": [16],
      "backdrop_path": "/7QNGBStqOLNtKrczEmbjfuCHKjo.jpg",
      "adult": false,
      "overview":
        "In \"LEGO Marvel Super Heroes: Avengers Reassembled!,\" the Avengers prepare for a party at Stark Tower and notice that Iron Man is acting strange. After some investigation, they discover that the evil Ultron has taken control of Iron Man and his armor as part of his scheme to take over the world. It's up to Captain America, the Hulk, Thor, Vision, Black Widow, Hawkeye and their friends (Spider-Man, Iron Spider, and special guest star Ant-Man) to rescue Iron Man from Ultron's clutches and defeat the super villain before he causes even more destruction and chaos.",
      "release_date": "2015-11-16"
    },
    {
      "vote_count": 0,
      "id": 416101,
      "video": false,
      "vote_average": 0,
      "title": "Ninja Avengers",
      "popularity": 1.25,
      "poster_path": "/78gZEGMezkpLXUxaIq5DqXlkhPD.jpg",
      "original_language": "en",
      "original_title": "Ninja Avengers",
      "genre_ids": [],
      "backdrop_path": null,
      "adult": false,
      "overview":
        "Just like those Thomas Tang \"so-called\" Ninja films that came out on Imperial Video. This one has a tacked in plot of Richard Harrison trying to fight off European Ninjas in footage that doesn't even match the film! The whole film is basically a RED SUN rip-off (but this time the Japanese steal a statue) that has a DJANGO like character carrying a cross that contains a gattling gun.",
      "release_date": "1987-01-01"
    },
    {
      "vote_count": 0,
      "id": 40830,
      "video": false,
      "vote_average": 0,
      "title": "Shaolin Avengers",
      "popularity": 1.017321,
      "poster_path": "/jEIwVDDQH8KYLGXgUIUIDDwXJKS.jpg",
      "original_language": "zh",
      "original_title": "少林英雄之方世玉洪熙官",
      "genre_ids": [28],
      "backdrop_path": null,
      "adult": false,
      "overview":
        "This classical tale of Shaolin Temple disciples versus the Manchurian Ching government displays Shaolin martial arts at its best in empty hand combat. After the siege of the Shaolin Monastery by the Ching gevernment in the 18th century, students of Shaolin led by Hung See-Kwan, continue to rebel agains the Manchus. Hung then joins forces with the well-known hero Fong Sai Yuk. Hung is now a wanted criminal by Ching leader Kow Ching Chung, former disciple of Shaolin. Fong's association with Hung brings tragedy to his family as they are raided and killed by Kow's troops. Fong and Hung prepare for the final battle as they vow to bring Kow to his knees to avenge Shaolin and their families.",
      "release_date": "1994-09-19"
    },
    {
      "vote_count": 77,
      "id": 257346,
      "video": false,
      "vote_average": 5.8,
      "title": "Avengers Confidential: Black Widow & Punisher",
      "popularity": 6.82684,
      "poster_path": "/6zBkbmqB857edSNt08fJpv1Tqqt.jpg",
      "original_language": "ja",
      "original_title":
        "アベンジャーズ コンフィデンシャル：ブラック・ウィドウ ＆ パニッシャー",
      "genre_ids": [16, 878, 28],
      "backdrop_path": "/kI1AdjSl2o038FQRZTuOqOlZ9VN.jpg",
      "adult": false,
      "overview":
        "When the Punisher takes out a black-market weapons dealer, he stumbles upon a far-reaching terrorist plot devised by a group known as Leviathan.",
      "release_date": "2014-03-25"
    },
    {
      "vote_count": 0,
      "id": 432413,
      "video": false,
      "vote_average": 0,
      "title": "The Avengers",
      "popularity": 1.002685,
      "poster_path": "/dqDoCzAsYC4W6GHP9eiXtvPoiRh.jpg",
      "original_language": "en",
      "original_title": "The Avengers",
      "genre_ids": [12],
      "backdrop_path": null,
      "adult": false,
      "overview":
        "The attractive Argentine Don Careless is an adventurer and an excellent swordsman. Don is in love with Maria Moreno, since he had to emerge her jewels and had thereby to kill a shark. Don tries to prevent the forced marriage of Mary with the ruthless revolutionary Colonel Luis Corral. An armed clash between Don and Luis seems inevitable.",
      "release_date": "1950-06-10"
    },
    {
      "vote_count": 0,
      "id": 157421,
      "video": false,
      "vote_average": 0,
      "title": "Avengers from Hell",
      "popularity": 1.044575,
      "poster_path": "/sPN52tE6Hn37G6pzFMRQ0prN8xS.jpg",
      "original_language": "en",
      "original_title": "Gui Yu",
      "genre_ids": [14, 27, 9648],
      "backdrop_path": null,
      "adult": false,
      "overview":
        "Three macabre short stories about gambling, vengeance and homicide.",
      "release_date": "1981-04-02"
    },
    {
      "vote_count": 1,
      "id": 413553,
      "video": false,
      "vote_average": 6,
      "title": "The Young Avengers",
      "popularity": 1.042739,
      "poster_path": "/aVHgU5GO6dZcJHS9LERQFhf8ZAi.jpg",
      "original_language": "en",
      "original_title": "Shi san mei",
      "genre_ids": [28, 12],
      "backdrop_path": null,
      "adult": false,
      "overview":
        "A scholar taking money to bail out his falsely accused father is rescued from bandits by a swordswoman in red, who is looking to avenge her parents death.",
      "release_date": "1969-06-05"
    }
  ]
}
